{
    "name": "GeoFlexUtility",
    "rootNamespace": "GeoFlex.Utility",
    "references": [
        "GUID:c012f9db1b80b4c4d80f54d773f79969"
    ],
    "includePlatforms": [],
    "excludePlatforms": [],
    "allowUnsafeCode": false,
    "overrideReferences": false,
    "precompiledReferences": [],
    "autoReferenced": true,
    "defineConstraints": [],
    "versionDefines": [],
    "noEngineReferences": false
}