{
    "name": "GeoFlexEditor",
    "rootNamespace": "GeoFlex.Editor",
    "references": [
        "GUID:171509d85f6d14a46bb49c88d743e152",
        "GUID:c012f9db1b80b4c4d80f54d773f79969"
    ],
    "includePlatforms": [
        "Editor"
    ],
    "excludePlatforms": [],
    "allowUnsafeCode": false,
    "overrideReferences": false,
    "precompiledReferences": [],
    "autoReferenced": true,
    "defineConstraints": [
        "UNITY_EDITOR"
    ],
    "versionDefines": [],
    "noEngineReferences": false
}